display_year,month_seq,month,survey_id,region,value
2015/16,1,Jul,Catch,All,7401
2015/16,1,Jul,Catch (cum),All,7401
2015/16,1,Jul,CPUE,All,0.28
2015/16,2,Aug,Catch,All,22587
2015/16,2,Aug,Catch (cum),All,29988
2015/16,2,Aug,CPUE,All,0.44
2015/16,3,Sep,Catch,All,15644
2015/16,3,Sep,Catch (cum),All,45632
2015/16,3,Sep,CPUE,All,0.51
2015/16,4,Nov,Catch,All,14419
2015/16,4,Nov,Catch (cum),All,60051
2015/16,4,Nov,CPUE,All,0.61
2015/16,5,Dec,Catch,All,47935
2015/16,5,Dec,Catch (cum),All,107986
2015/16,5,Dec,CPUE,All,0.89
2015/16,6,Jan,Catch,All,40933
2015/16,6,Jan,Catch (cum),All,148919
2015/16,6,Jan,CPUE,All,0.77
2015/16,7,Feb,Catch,All,39996
2015/16,7,Feb,Catch (cum),All,188915
2015/16,7,Feb,CPUE,All,0.71
2015/16,8,Mar,Catch,All,30252
2015/16,8,Mar,Catch (cum),All,219167
2015/16,8,Mar,CPUE,All,0.68
2015/16,9,Apr,Catch,All,9138
2015/16,9,Apr,Catch (cum),All,228305
2015/16,9,Apr,CPUE,All,0.5
2015/16,10,May,Catch,All,3089
2015/16,10,May,Catch (cum),All,231394
2015/16,10,May,CPUE,All,0.5
2015/16,11,Jun,Catch,All,858
2015/16,11,Jun,Catch (cum),All,232252
2015/16,11,Jun,CPUE,All,0.23
2016/17,1,Jul,Catch,All,6435
2016/17,1,Jul,Catch (cum),All,6435
2016/17,1,Jul,CPUE,All,0.33
2016/17,2,Aug,Catch,All,25889
2016/17,2,Aug,Catch (cum),All,32324
2016/17,2,Aug,CPUE,All,0.48
2016/17,3,Sep,Catch,All,10912
2016/17,3,Sep,Catch (cum),All,43236
2016/17,3,Sep,CPUE,All,0.48
2016/17,4,Nov,Catch,All,15819
2016/17,4,Nov,Catch (cum),All,59055
2016/17,4,Nov,CPUE,All,0.6
2016/17,5,Dec,Catch,All,41918
2016/17,5,Dec,Catch (cum),All,100973
2016/17,5,Dec,CPUE,All,0.8
2016/17,6,Jan,Catch,All,43708
2016/17,6,Jan,Catch (cum),All,144681
2016/17,6,Jan,CPUE,All,0.83
2016/17,7,Feb,Catch,All,18171
2016/17,7,Feb,Catch (cum),All,162852
2016/17,7,Feb,CPUE,All,0.65
2016/17,8,Mar,Catch,All,22373
2016/17,8,Mar,Catch (cum),All,185225
2016/17,8,Mar,CPUE,All,0.69
2016/17,9,Apr,Catch,All,16607
2016/17,9,Apr,Catch (cum),All,201832
2016/17,9,Apr,CPUE,All,0.68
2016/17,10,May,Catch,All,6293
2016/17,10,May,Catch (cum),All,208125
2016/17,10,May,CPUE,All,0.47
2016/17,11,Jun,Catch,All,1770
2016/17,11,Jun,Catch (cum),All,209895
2016/17,11,Jun,CPUE,All,0.37
2017/18,1,Jul,Catch,All,9566
2017/18,1,Jul,Catch (cum),All,9566
2017/18,1,Jul,CPUE,All,0.4
2017/18,2,Aug,Catch,All,25336
2017/18,2,Aug,Catch (cum),All,34902
2017/18,2,Aug,CPUE,All,0.52
2017/18,3,Sep,Catch,All,9302
2017/18,3,Sep,Catch (cum),All,44204
2017/18,3,Sep,CPUE,All,0.55
2017/18,4,Nov,Catch,All,22729
2017/18,4,Nov,Catch(cumulative),All,66933
2017/18,4,Nov,CPUE,All,0.79
2017/18,5,Dec,Catch,All,49403
2017/18,5,Dec,Catch(cumulative),All,116336
2017/18,5,Dec,CPUE,All,0.96
2017/18,6,Jan,Catch,All,38983
2017/18,6,Jan,Catch (cum),All,155319
2017/18,6,Jan,CPUE,All,0.9
2017/18,7,Feb,Catch,All,45405
2017/18,7,Feb,Catch (cum),All,200724
2017/18,7,Feb,CPUE,All,0.98
2017/18,8,Mar,Catch,All,18603
2017/18,8,Mar,Catch (cum),All,219327
2017/18,8,Mar,CPUE,All,0.95
2017/18,9,Apr,Catch,All,4229
2017/18,9,Apr,Catch (cum),All,223556
2017/18,9,Apr,CPUE,All,0.65
2017/18,10,May,Catch,All,869
2017/18,10,May,Catch (cum),All,224425
2017/18,10,May,CPUE,All,0.51
2017/18,11,Jun,Catch,All,1159
2017/18,11,Jun,Catch (cum),All,225584
2017/18,11,Jun,CPUE,All,0.34
